﻿Build started 1/22/2017 10:20:08 PM.
     1>Project "C:\Users\msi\Desktop\work on this-1bahman- jome\TANKS\TANKS\TANKS.vcxproj" on node 2 (Build target(s)).
     1>ClCompile:
         C:\Program Files (x86)\Microsoft Visual Studio 11.0\VC\bin\CL.exe /c /ZI /nologo /W3 /WX- /sdl /Od /Oy- /D WIN32 /D _DEBUG /D _CONSOLE /D _UNICODE /D UNICODE /Gm /EHsc /RTC1 /MDd /GS /fp:precise /Zc:wchar_t /Zc:forScope /Yc"stdafx.h" /Fp"Debug\TANKS.pch" /Fo"Debug\\" /Fd"Debug\vc110.pdb" /Gd /TP /analyze- /errorReport:prompt stdafx.cpp
         stdafx.cpp
         C:\Program Files (x86)\Microsoft Visual Studio 11.0\VC\bin\CL.exe /c /ZI /nologo /W3 /WX- /sdl /Od /Oy- /D WIN32 /D _DEBUG /D _CONSOLE /D _UNICODE /D UNICODE /Gm /EHsc /RTC1 /MDd /GS /fp:precise /Zc:wchar_t /Zc:forScope /Yu"stdafx.h" /Fp"Debug\TANKS.pch" /Fo"Debug\\" /Fd"Debug\vc110.pdb" /Gd /TP /analyze- /errorReport:prompt TANKS.cpp
         TANKS.cpp
     1>c:\users\msi\desktop\work on this-1bahman- jome\tanks\tanks\tanks.cpp(807): warning C4800: 'int' : forcing value to bool 'true' or 'false' (performance warning)
     1>c:\users\msi\desktop\work on this-1bahman- jome\tanks\tanks\tanks.cpp(833): warning C4800: 'int' : forcing value to bool 'true' or 'false' (performance warning)
     1>c:\users\msi\desktop\work on this-1bahman- jome\tanks\tanks\tanks.cpp(952): warning C4018: '<' : signed/unsigned mismatch
     1>c:\users\msi\desktop\work on this-1bahman- jome\tanks\tanks\tanks.cpp(1423): warning C4244: 'argument' : conversion from 'time_t' to 'unsigned int', possible loss of data
     1>c:\users\msi\desktop\work on this-1bahman- jome\tanks\tanks\tanks.cpp(1417): warning C4715: 'find' : not all control paths return a value
     1>c:\users\msi\desktop\work on this-1bahman- jome\tanks\tanks\tanks.cpp(2126): warning C4715: 'tank::getrandomD' : not all control paths return a value
     1>c:\users\msi\desktop\work on this-1bahman- jome\tanks\tanks\tanks.cpp(2566): warning C4715: 'tank::randomshoot' : not all control paths return a value
     1>c:\users\msi\desktop\work on this-1bahman- jome\tanks\tanks\tanks.cpp(340): warning C4715: 'feild::performA' : not all control paths return a value
       Link:
         C:\Program Files (x86)\Microsoft Visual Studio 11.0\VC\bin\link.exe /ERRORREPORT:PROMPT /OUT:"C:\Users\msi\Desktop\work on this-1bahman- jome\TANKS\Debug\TANKS.exe" /INCREMENTAL /NOLOGO kernel32.lib user32.lib gdi32.lib winspool.lib comdlg32.lib advapi32.lib shell32.lib ole32.lib oleaut32.lib uuid.lib odbc32.lib odbccp32.lib /MANIFEST /MANIFESTUAC:"level='asInvoker' uiAccess='false'" /manifest:embed /DEBUG /PDB:"C:\Users\msi\Desktop\work on this-1bahman- jome\TANKS\Debug\TANKS.pdb" /SUBSYSTEM:CONSOLE /TLBID:1 /DYNAMICBASE /NXCOMPAT /IMPLIB:"C:\Users\msi\Desktop\work on this-1bahman- jome\TANKS\Debug\TANKS.lib" /MACHINE:X86 Debug\stdafx.obj
         Debug\TANKS.obj
         TANKS.vcxproj -> C:\Users\msi\Desktop\work on this-1bahman- jome\TANKS\Debug\TANKS.exe
     1>Done Building Project "C:\Users\msi\Desktop\work on this-1bahman- jome\TANKS\TANKS\TANKS.vcxproj" (Build target(s)).

Build succeeded.

Time Elapsed 00:00:03.10
